<svg width="32" height="32" xmlns="http://www.w3.org/2000/svg" version="1.1" xml:space="preserve">
 <g>
  <title>Shiba Inu logo</title>
  <g stroke="null" id="Group_938">
   <g stroke="null" id="Group_931">
    <path stroke="null" id="Path_8573" class="st0" d="m23.2355,2.8575c-0.81159,0.81917 -1.55514,1.707 -2.21607,2.6537l-0.20897,-0.06867c-1.20523,-0.39732 -2.4542,-0.64258 -3.7129,-0.72597c-0.37907,-0.02943 -1.79327,-0.02943 -2.25495,0c-1.39477,0.0932 -2.46392,0.30412 -3.67888,0.73087c-0.0486,0.01962 -0.09234,0.03434 -0.13607,0.04905c-0.68523,-0.9418 -1.44822,-1.82473 -2.28897,-2.63408c4.03364,-2.0847 8.75252,-2.33487 12.97569,-0.69163c0.45196,0.17168 0.89421,0.37279 1.32673,0.58862l0.19439,0.0981z" fill="#F00500"/>
    <path stroke="null" id="Path_8574" class="st0" d="m30.75849,21.46287c-0.61234,1.76096 -1.53084,3.39439 -2.72149,4.81689c-0.64635,0.76521 -1.36075,1.46665 -2.1286,2.10432c-1.79813,1.46175 -3.89757,2.50655 -6.13794,3.05593c-2.4785,0.60334 -5.06392,0.60334 -7.54243,0c-2.24523,-0.54938 -4.33981,-1.59419 -6.13794,-3.05593c-0.76785,-0.63767 -1.48224,-1.33912 -2.1286,-2.10432c-3.42617,-4.08602 -4.46617,-9.69755 -2.72149,-14.7548c0.33047,-0.93689 0.74355,-1.83944 1.23925,-2.69785c0.22841,-0.39241 0.51028,-0.83388 0.64635,-1.01537c0.46654,2.02584 1.04,3.80642 1.25383,4.449c-0.01458,0.03434 -0.03402,0.07358 -0.05346,0.10791c-1.13234,2.31525 -1.74467,4.54711 -1.89047,6.92122c0,0.02943 -0.00486,0.06377 -0.00486,0.0932c-0.03888,0.71125 -0.01944,1.04971 0.0972,1.49608c0.36449,1.39798 1.4871,2.93821 3.24635,4.449c2.88187,2.47221 6.78916,4.2577 9.74878,4.46372c3.08598,0.21092 7.63962,-1.6089 10.67214,-4.26751c0.47626,-0.42675 0.92336,-0.87803 1.34131,-1.35874c0.30131,-0.35317 0.74841,-0.96142 0.71439,-0.96142c-0.00972,0 0,-0.00981 0.01944,-0.01962c0.01458,-0.00981 0.02916,-0.02453 0.01944,-0.03434c-0.00486,-0.00491 0.00486,-0.01962 0.01944,-0.02453c0.01458,-0.00491 0.0243,-0.01472 0.01944,-0.02453s0,-0.01962 0.01944,-0.02453c0.01458,-0.00491 0.01944,-0.01962 0.01458,-0.02943c-0.00486,-0.00981 0,-0.01962 0.00972,-0.01962c0.00972,0 0.01944,-0.01472 0.01944,-0.02453s0.00972,-0.02453 0.01944,-0.02453c0.00972,0 0.01944,-0.00981 0.01944,-0.01962c0.01458,-0.03924 0.03888,-0.07848 0.06318,-0.11282c0.0729,-0.11282 0.36449,-0.63767 0.40336,-0.72597c0.27701,-0.63277 0.45196,-1.19687 0.53458,-1.76096c0.03888,-0.26979 0.06318,-0.76521 0.04374,-0.88293c-0.00486,-0.01962 -0.00486,-0.05396 -0.00972,-0.10791c-0.00972,-0.0981 -0.01458,-0.24526 -0.0243,-0.39241c-0.00972,-0.22073 -0.02916,-0.52976 -0.04374,-0.68182c-0.20897,-2.22695 -0.77271,-4.04678 -1.84187,-5.97452c-0.04374,-0.07358 -0.08262,-0.14716 -0.10692,-0.20602c-0.00972,-0.01472 -0.01458,-0.02943 -0.01944,-0.03924l0,0c0.15065,-0.45618 0.76785,-2.3643 1.25869,-4.54711l0.00972,0.00981l0.0729,0.0981c0.12636,0.17168 0.46168,0.68182 0.61234,0.92708c0.68523,1.12819 1.21981,2.33977 1.59888,3.60531c0.87963,3.04612 0.80673,6.29335 -0.22355,9.29533z" fill="#F00500"/>
    <path stroke="null" id="Path_8575" d="m24.45045,15.60117c-0.01458,0.07848 -0.24299,0.31393 -0.4714,0.48561c-0.67065,0.49542 -1.87103,0.95651 -3.09084,1.17724c-0.69495,0.12753 -1.38991,0.14716 -1.59888,0.04415c-0.13607,-0.06867 -0.15551,-0.12263 -0.10692,-0.29922c0.10206,-0.36789 0.43252,-0.77011 0.94766,-1.14781c0.26243,-0.1913 1.32673,-0.84369 1.82243,-1.11838c0.81645,-0.45128 1.47738,-0.72106 1.92449,-0.78483c0.14093,-0.01962 0.31103,-0.02453 0.36449,0c0.08748,0.03434 0.18467,0.29431 0.22355,0.60824c0.01944,0.16678 0.00972,0.90255 -0.01458,1.03499z"/>
    <path stroke="null" id="Path_8576" d="m13.00074,17.22479c-0.02916,0.05886 -0.17495,0.12263 -0.34019,0.14716c-0.16523,0.02453 -0.67065,0.00981 -0.95738,-0.02453c-1.03028,-0.13735 -2.12374,-0.45618 -2.92075,-0.8486c-0.4471,-0.22073 -0.76785,-0.44147 -1.00598,-0.68182l-0.13607,-0.14225l-0.01458,-0.1864c-0.0243,-0.32374 -0.01944,-0.83388 0.01944,-1.01537c0.0243,-0.15206 0.07776,-0.29922 0.15065,-0.43166c0.03888,-0.04905 0.03888,-0.04905 0.21383,-0.04905c0.21383,0 0.39364,0.03434 0.68523,0.12753c0.59776,0.1864 1.4871,0.63767 2.57084,1.29497c0.89421,0.53957 1.22953,0.80445 1.4871,1.16743c0.17495,0.22564 0.29159,0.54448 0.24785,0.64258z"/>
    <path stroke="null" id="Path_8577" d="m19.88223,24.05281c0,0.01472 -0.05832,0.25016 -0.13121,0.52976c-0.0729,0.2796 -0.13121,0.50523 -0.13121,0.51504c-0.05346,0.00491 -0.10206,0.00981 -0.15551,0.00491l-0.15551,0l-0.21383,0.51014c-0.11664,0.2796 -0.22355,0.53957 -0.23813,0.57881l-0.02916,0.06867l-0.10206,-0.16678l-0.10206,-0.16678l0,-1.35874l-0.03888,0.00981c-0.08262,0.01962 -0.67065,0.0981 -0.92822,0.12263c-1.0643,0.10791 -2.13346,0.08339 -3.1929,-0.06867c-0.17009,-0.02453 -0.31589,-0.04415 -0.32075,-0.03924c-0.00486,0.00491 0,0.31884 0.00972,0.70635l0.01458,0.69654l-0.08262,0.12753c-0.04374,0.06867 -0.08748,0.12753 -0.08748,0.13244c-0.01458,0.01472 -0.06318,-0.06377 -0.17495,-0.28941c-0.1215,-0.23545 -0.20897,-0.48561 -0.27215,-0.74559l-0.03402,-0.14225l-0.15065,0.00981l-0.15065,0.01472l-0.03888,-0.18149c-0.01944,-0.0981 -0.04374,-0.25016 -0.05346,-0.33355l-0.01458,-0.15697l-0.12636,-0.11282c-0.0729,-0.06377 -0.14579,-0.12753 -0.16037,-0.13735c-0.0243,-0.01962 -0.03402,-0.05396 -0.03402,-0.08339l0,-0.05886l0.60748,0.00491l0.60748,0.00491l0.01944,0.06377l0.01944,0.06377l0.20897,0.00981c0.11664,0.00491 0.48598,0.01472 0.81645,0.02453l0.60748,0.01472l0.15551,-0.24526l0.16037,-0.24526l0.20411,0l-0.00486,-0.51014l-0.00486,-0.51014l-0.26729,-0.11772c-0.86019,-0.3826 -1.36561,-0.81917 -1.55514,-1.34893c-0.03888,-0.10791 -0.03888,-0.14716 -0.0486,-0.63767c-0.00486,-0.48561 -0.00486,-0.52976 0.02916,-0.63767c0.06804,-0.24526 0.25757,-0.43656 0.50056,-0.50033c0.08262,-0.02453 0.30131,-0.02453 1.44822,-0.02453l1.35103,0.00491l0.15065,0.07358c0.17981,0.08829 0.26243,0.15206 0.36449,0.28941c0.11664,0.15697 0.15065,0.2796 0.15065,0.57881c0,0.42675 -0.02916,0.79464 -0.0729,0.9418c-0.06318,0.20111 -0.16037,0.39241 -0.28187,0.5641c-0.24299,0.31393 -0.68523,0.62786 -1.0886,0.77011l-0.11664,0.04415l0.00486,0.51504l0.00486,0.51504l0.10692,0.00981l0.10692,0.00981l0.14579,0.22073l0.14093,0.22073l0.65121,0c0.35963,0 0.67551,0.00491 0.70467,0.00981c0.0486,0.00981 0.05832,0.00491 0.10692,-0.07848l0.05832,-0.08829l0.55888,0c0.41794,-0.01962 0.5443,-0.00981 0.5443,0.00491z"/>
    <path stroke="null" id="Path_8578" d="m17.31625,25.46059c-0.09234,0.05396 -0.15551,0.07848 -0.17009,0.06867c-0.01458,-0.00491 -0.08262,-0.06377 -0.15551,-0.11772l-0.13121,-0.10791l-0.13607,0.14716c-0.29645,0.32374 -0.30617,0.33846 -0.39364,0.34336c-0.13607,0.01472 -0.16523,-0.00981 -0.33047,-0.25997c-0.08748,-0.12753 -0.15551,-0.23545 -0.15551,-0.23545c0,0 -0.06318,-0.00981 -0.13607,-0.01472l-0.13607,-0.01472l-0.06318,0.13244l-0.06318,0.13244l-0.11178,-0.03434c-0.08748,-0.02943 -0.17495,-0.06377 -0.25757,-0.10301l-0.14579,-0.07358l0,-0.2796l1.29271,0.00491l1.29271,0.00491l0.00486,0.13244c0.00486,0.15697 0.00972,0.15206 -0.20411,0.27469z"/>
   </g>
   <path stroke="null" id="Path_8579" class="st1" d="m29.46578,19.47627c-0.00486,-0.01962 -0.00486,-0.05396 -0.00972,-0.10791c-1.16635,-0.12753 -4.49532,-0.20602 -7.58616,2.3692c0,0 -0.99626,-4.61087 -5.66168,-4.61087s-6.39551,4.61087 -6.39551,4.61087c-2.61458,-2.8401 -6.11364,-2.63408 -7.37719,-2.44769c0,0.02943 -0.00486,0.06377 -0.00486,0.0932c-0.03888,0.71125 -0.01944,1.04971 0.0972,1.49608c0.36449,1.39798 1.4871,2.93821 3.24635,4.449c2.88187,2.47221 6.78916,4.2577 9.74878,4.46372c3.08598,0.21092 7.63962,-1.6089 10.67214,-4.26751c0.47626,-0.42675 0.92336,-0.87803 1.34131,-1.35874c0.30131,-0.35317 0.74841,-0.96142 0.71439,-0.96142c-0.00972,0 0,-0.00981 0.01944,-0.01962c0.01458,-0.00981 0.02916,-0.02453 0.01944,-0.03434c-0.00486,-0.00491 0.00486,-0.01962 0.01944,-0.02453c0.01458,-0.00491 0.0243,-0.01472 0.01944,-0.02453s0,-0.01962 0.01944,-0.02453c0.01458,-0.00491 0.01944,-0.01962 0.01458,-0.02943c-0.00486,-0.00981 0,-0.01962 0.00972,-0.01962c0.00972,0 0.01944,-0.01472 0.01944,-0.02453s0.00972,-0.02453 0.01944,-0.02453c0.00972,0 0.01944,-0.00981 0.01944,-0.01962c0.01458,-0.03924 0.03888,-0.07848 0.06318,-0.11282c0.0729,-0.11282 0.36449,-0.63767 0.40336,-0.72597c0.27701,-0.63277 0.45196,-1.19687 0.53458,-1.76096c0.02916,-0.26979 0.05346,-0.76521 0.03402,-0.88293zm-12.14953,5.98433c-0.09234,0.05396 -0.15551,0.07848 -0.17009,0.06867c-0.01458,-0.00491 -0.08262,-0.06377 -0.15551,-0.11772l-0.13121,-0.10791l-0.13607,0.14716c-0.29645,0.32374 -0.30617,0.33846 -0.39364,0.34336c-0.13607,0.01472 -0.16523,-0.00981 -0.33047,-0.25997c-0.08748,-0.12753 -0.15551,-0.23545 -0.15551,-0.23545c0,0 -0.06318,-0.00981 -0.13607,-0.01472l-0.13607,-0.01472l-0.06318,0.13244l-0.06318,0.13244l-0.11178,-0.03434c-0.08748,-0.02943 -0.17495,-0.06377 -0.25757,-0.10301l-0.14579,-0.07358l0,-0.2796l1.29271,0.00491l1.29271,0.00491l0.00486,0.13244c0.00486,0.15697 0.00972,0.15206 -0.20411,0.27469zm2.42991,-0.88293c-0.0729,0.2796 -0.13121,0.50523 -0.13121,0.51504c-0.05346,0.00491 -0.10206,0.00981 -0.15551,0.00491l-0.15551,0l-0.20897,0.51504c-0.11664,0.2796 -0.22355,0.53957 -0.23813,0.57881l-0.02916,0.06867l-0.10206,-0.16678l-0.10206,-0.16678l0,-1.35874l-0.03888,0.00981c-0.08262,0.01962 -0.67065,0.0981 -0.92822,0.12263c-1.0643,0.10791 -2.13346,0.08339 -3.1929,-0.06867c-0.17009,-0.02453 -0.31589,-0.04415 -0.32075,-0.03924c-0.00486,0.00491 0,0.31884 0.00972,0.70635l0.01458,0.69654l-0.08262,0.12753c-0.04374,0.06867 -0.08748,0.12753 -0.08748,0.13244c-0.01458,0.01472 -0.06318,-0.06377 -0.17495,-0.28941c-0.1215,-0.23545 -0.20897,-0.48561 -0.27215,-0.74559l-0.03402,-0.14225l-0.15065,0.00981l-0.15065,0.01472l-0.03888,-0.18149c-0.01944,-0.0981 -0.04374,-0.25016 -0.05346,-0.33355l-0.01458,-0.15697l-0.12636,-0.11282c-0.0729,-0.06377 -0.14579,-0.12753 -0.16037,-0.13735c-0.0243,-0.01962 -0.03402,-0.05396 -0.03402,-0.08339l0,-0.05886l0.60748,0.00491l0.60748,0.00491l0.01944,0.06377l0.01944,0.06377l0.20897,0.00981c0.11664,0.00491 0.48598,0.01472 0.81645,0.02453l0.60748,0.01472l0.15551,-0.24526l0.16037,-0.24526l0.20411,0l-0.00486,-0.51014l-0.00486,-0.51014l-0.26729,-0.11772c-0.86019,-0.3826 -1.36561,-0.81917 -1.55514,-1.34893c-0.03888,-0.10791 -0.03888,-0.14716 -0.0486,-0.63767c-0.00486,-0.48561 -0.00486,-0.52976 0.02916,-0.63767c0.06804,-0.24526 0.25757,-0.43656 0.50056,-0.50033c0.08262,-0.02453 0.30131,-0.02453 1.44822,-0.02453l1.35103,0.00491l0.15065,0.07358c0.17981,0.08829 0.26243,0.15206 0.36449,0.28941c0.11664,0.15697 0.15065,0.2796 0.15065,0.57881c0,0.42675 -0.02916,0.79464 -0.0729,0.9418c-0.06318,0.20111 -0.16037,0.39241 -0.28187,0.5641c-0.24299,0.31393 -0.68523,0.62786 -1.0886,0.77011l-0.11664,0.04415l0.00486,0.51504l0.00486,0.51504l0.10692,0.00981l0.10692,0.00981l0.14579,0.22073l0.14093,0.22073l0.65121,0c0.35963,0 0.67551,0.00491 0.70467,0.00981c0.0486,0.00981 0.05832,0.00491 0.10692,-0.07848l0.05832,-0.08829l0.55888,0c0.43252,0 0.55888,0.00491 0.55888,0.01962c-0.01458,-0.00491 -0.07776,0.23545 -0.15065,0.51014z" fill="#FFFFFF"/>
   <path stroke="null" id="Path_8580" class="st2" d="m2.42579,19.28987c-0.30617,0.04415 -0.48598,0.0932 -0.48598,0.0932" fill="none"/>
   <path stroke="null" id="Path_8581" class="st2" d="m29.88858,19.43212c0,0 -0.15551,-0.03434 -0.43252,-0.06377" fill="none"/>
   <path stroke="null" id="Path_8582" class="st3" d="m29.4269,18.97594c-0.00972,-0.22073 -0.02916,-0.52976 -0.04374,-0.68182c-0.20897,-2.22695 -0.77271,-4.04678 -1.84187,-5.97452c-0.04374,-0.07358 -0.08262,-0.14716 -0.10692,-0.20602c-0.00972,-0.01472 -0.01458,-0.02943 -0.01944,-0.03924l0,0c0.15065,-0.45618 0.76785,-2.3643 1.25869,-4.54711c0.66579,-2.96273 1.0886,-6.42579 -0.20411,-7.46569c0,0 -2.23551,-0.16678 -5.22916,2.79596c-0.81159,0.81917 -1.55514,1.707 -2.21607,2.6537l-0.20897,-0.06867c-1.20523,-0.39732 -2.4542,-0.64258 -3.7129,-0.72597c-0.37907,-0.02943 -1.79327,-0.02943 -2.25495,0c-1.39477,0.0932 -2.46392,0.30412 -3.67888,0.73087c-0.0486,0.01962 -0.09234,0.03434 -0.13607,0.04905c-0.68523,-0.9418 -1.44822,-1.82473 -2.28897,-2.63408c-3.11514,-2.97745 -5.43327,-2.80577 -5.43327,-2.80577c-1.37047,1.07424 -0.90392,4.69426 -0.19439,7.7551c0.46654,2.02584 1.04,3.80642 1.25383,4.449c-0.01458,0.03434 -0.03402,0.07358 -0.05346,0.10791c-1.13234,2.31525 -1.74467,4.54711 -1.89047,6.92122c1.26841,-0.1864 4.76261,-0.39732 7.38205,2.44769c0,0 1.73009,-4.61087 6.39551,-4.61087s5.66168,4.61087 5.66168,4.61087c3.09084,-2.57522 6.41981,-2.49183 7.58616,-2.3692c-0.00486,-0.0981 -0.01458,-0.24526 -0.0243,-0.39241zm-24.13868,-8.56445c0,0 -1.81757,-4.58635 -1.35103,-7.20572c0,0 0,0 0,0c0.07776,-0.44147 0.22355,-0.82898 0.45196,-1.12329c0,0 2.06056,0.20602 5.38467,3.93396c0,0 -0.63178,0.30903 -1.47738,0.96632c0,0 -0.00486,0.00491 -0.00972,0.00491c-0.9185,0.71125 -2.09458,1.83944 -2.9985,3.42382l0,0zm7.71252,6.8133c-0.02916,0.05886 -0.17495,0.12263 -0.34019,0.14716c-0.16523,0.02453 -0.67065,0.00981 -0.95738,-0.02453c-1.03028,-0.13735 -2.12374,-0.45618 -2.92075,-0.8486c-0.4471,-0.22073 -0.76785,-0.44147 -1.00598,-0.68182l-0.13607,-0.14225l-0.01458,-0.1864c-0.0243,-0.32374 -0.01944,-0.83388 0.01944,-1.01537c0.0243,-0.15206 0.07776,-0.29922 0.15065,-0.43166c0.03888,-0.04905 0.03888,-0.04905 0.21383,-0.04905c0.21383,0 0.39364,0.03434 0.68523,0.12753c0.59776,0.1864 1.4871,0.63767 2.57084,1.29497c0.89421,0.53957 1.22953,0.80445 1.4871,1.16743c0.17495,0.22564 0.29159,0.54448 0.24785,0.64258zm11.44971,-1.62362c-0.01458,0.07848 -0.24299,0.31393 -0.4714,0.48561c-0.67065,0.49542 -1.87103,0.95651 -3.09084,1.17724c-0.69495,0.12753 -1.38991,0.14716 -1.59888,0.04415c-0.13607,-0.06867 -0.15551,-0.12263 -0.10692,-0.29922c0.10206,-0.36789 0.43252,-0.77011 0.94766,-1.14781c0.26243,-0.1913 1.32673,-0.84369 1.82243,-1.11838c0.81645,-0.45128 1.47738,-0.72106 1.92449,-0.78483c0.14093,-0.01962 0.31103,-0.02453 0.36449,0c0.08748,0.03434 0.18467,0.29431 0.22355,0.60824c0.01944,0.16678 0.00972,0.90255 -0.01458,1.03499zm-0.80673,-8.61841l-0.00972,-0.00491c-0.81645,-0.65729 -1.42878,-0.96632 -1.42878,-0.96632c3.21233,-3.72794 5.2,-3.93396 5.2,-3.93396c0.21869,0.29922 0.35963,0.68182 0.43738,1.12329c0,0 0,0 0,0c0.45196,2.61937 -1.30243,7.21062 -1.30243,7.21062c-0.73383,-1.31949 -1.72037,-2.48693 -2.89645,-3.42872l0,0z" fill="#FFA409"/>
   <path stroke="null" id="Path_8583" class="st2" d="m21.01943,5.51121c-0.00972,0.00981 -0.01458,0.02453 -0.0243,0.03434" fill="none"/>
   <path stroke="null" id="Path_8584" class="st2" d="m27.41008,12.06944c-0.0243,0.06867 -0.03402,0.10301 -0.03402,0.10301" fill="none"/>
   <g stroke="null" id="Group_934">
    <g stroke="null" id="Group_933">
     <g stroke="null" id="Group_932">
      <path stroke="null" id="Path_8585" class="st4" d="m27.84746,3.20086c-0.37907,-0.04905 -2.17234,-0.05886 -4.20374,3.7819l-0.00972,-0.00491c-0.81645,-0.65729 -1.42878,-0.96632 -1.42878,-0.96632c3.21233,-3.72794 5.2,-3.93396 5.2,-3.93396c0.22355,0.29922 0.36449,0.68182 0.44224,1.12329z" fill="#FF9300"/>
     </g>
     <path stroke="null" id="Path_8586" class="st5" d="m26.54503,10.41149c-0.73869,-1.3244 -1.72037,-2.48693 -2.90131,-3.42872c2.0314,-3.84076 3.81981,-3.83095 4.20374,-3.7819c0,0 0,0 0,0c0.45196,2.62427 -1.30243,7.21062 -1.30243,7.21062z" fill="#FF8300"/>
     <path stroke="null" id="Path_8587" class="st5" d="m27.92036,3.21558c-0.0243,-0.00491 -0.0486,-0.00981 -0.0729,-0.01472l0.0729,0.01472z" fill="#FF8300"/>
    </g>
   </g>
   <path stroke="null" id="Path_8588" class="st2" d="m11.17831,5.70251c-0.0486,-0.06867 -0.10206,-0.13735 -0.15065,-0.20602" fill="none"/>
   <path stroke="null" id="Path_8589" class="st2" d="m4.36971,12.26074c0.05346,0.16678 0.08748,0.25507 0.08748,0.25507" fill="none"/>
   <g stroke="null" id="Group_937">
    <g stroke="null" id="Group_936">
     <g stroke="null" id="Group_935">
      <path stroke="null" id="Path_8590" class="st4" d="m9.77382,6.01154c0,0 -0.63178,0.30903 -1.47738,0.96632c0,0 -0.00486,0.00491 -0.00972,0.00491c-2.1043,-3.84566 -3.95589,-3.83095 -4.35439,-3.7819c0.07776,-0.44147 0.22355,-0.82898 0.45196,-1.12329c0.00486,0 2.06542,0.20602 5.38953,3.93396z" fill="#FF9300"/>
     </g>
     <path stroke="null" id="Path_8591" class="st5" d="m8.29158,6.98276c-0.92336,0.71616 -2.09944,1.83944 -3.00336,3.42872c0,0 -1.81757,-4.58635 -1.35103,-7.21062c0,0 0,0 0,0c0.39364,-0.04905 2.25009,-0.05886 4.35439,3.7819z" fill="#FF8300"/>
     <path stroke="null" id="Path_8592" class="st5" d="m3.93719,3.20086c-0.0243,0.00491 -0.05346,0.00981 -0.07776,0.01472l0.07776,-0.01472z" fill="#FF8300"/>
    </g>
   </g>
   <path stroke="null" id="Path_8593" class="st1" d="m21.6269,12.95728c0,0 -1.55514,0.0981 -1.36075,-1.12819s1.40935,-1.37345 1.74953,-1.3244s1.70093,0.53957 1.45794,1.56966s-0.58318,0.83388 -0.77757,0.88293s-1.06916,0 -1.06916,0z" fill="#FFFFFF"/>
   <path stroke="null" id="Path_8594" class="st1" d="m10.15775,12.95728c0,0 -1.55514,0.0981 -1.36075,-1.12819s1.40935,-1.37345 1.74953,-1.3244s1.70093,0.53957 1.45794,1.56966s-0.58318,0.83388 -0.77757,0.88293s-1.06916,0 -1.06916,0z" fill="#FFFFFF"/>
  </g>
 </g>
</svg>
